4 ケース（行）を選ぶ | がんばらないデータ加工：Rによる繰り返し作業入門（前編）
…
tidyな世界では「行 = ケース, 個人（wide形式の場合）」

ケースが多い時に関心あるケースに限定したデータにしたい

4.1 基本

filter( )の引数に論理式（TRUE or FALSEになるもの）を入れる

論理式の部分について，最初の内はselect( )に入れるものと違って混乱するかもしれないが，慣れると段々分かってくると思う

df %>% 
  filter(species == "Adelie")

## # A tibble: 152 x 8
##   species island    bill_length_mm bill_depth_mm flipper_length_~
##   <fct>   <fct>              <dbl>         <dbl>            <int>
## 1 Adelie  Torgersen           39.1          18.7              181
## 2 Adelie  Torgersen           39.5          17.4              186
## 3 Adelie  Torgersen           40.3          18                195
## # ... with 149 more rows, and 3 more variables:
## #   body_mass_g <int>, sex <fct>, year <int>

種（species）がAdelieのケースのみ選ばれた

df %>% 
  filter(bill_length_mm >= 50)

## # A tibble: 57 x 8
##   species island bill_length_mm bill_depth_mm flipper_length_mm
##   <fct>   <fct>           <dbl>         <dbl>             <int>
## 1 Gentoo  Biscoe           50            16.3               230
## 2 Gentoo  Biscoe           50            15.2               218
## 3 Gentoo  Biscoe           50.2          14.3               218
## # ... with 54 more rows, and 3 more variables:
## #   body_mass_g <int>, sex <fct>, year <int>
…
