3 新しい変数（列）の作成 | がんばらないデータ加工：Rによる繰り返し作業入門
…
3.2 基本

mutate( )の中に新しく作成する変数名を入れ，=でつないで計算式を入れる

ここでは，まず変数A1の平均値（全ケース同じ値が入る）を計算し，個々の値の差分をする例を示す

df_bfi %>% 
  select(A1) %>%                      # A1のみを残す
  mutate(
    mean_a1 = mean(A1, na.rm = TRUE), # A1の平均値を作成（NAは除外）
    dif_a1_mean = A1 - mean_a1)       # 各個体のA1と平均値の差分を計算

## # A tibble: 2,800 x 3
##      A1 mean_a1 dif_a1_mean
##   <int>   <dbl>       <dbl>
## 1     2    2.41      -0.413
## 2     2    2.41      -0.413
## 3     5    2.41       2.59 
## # ... with 2,797 more rows
…
整数 <int>

文字 <chr>

因子 <fct>

変数の型の確認は色々方法があるが，tibble形式のデータフレームならselect()でOK

tibble形式でなくても，最後にglimpse()で確認可能

df_bfi %>% 
  select(gender, education)

## # A tibble: 2,800 x 2
##   gender education
##    <int>     <int>
## 1      1        NA
## 2      2        NA
## 3      2        NA
## # ... with 2,797 more rows
…
gender, education列が <int> になっているので整数型になっている

3.3.1 型の変換

ここでは，2つの数値型変数gender, educationを因子型に変換する例を示す

それぞれfactor()で因子型に変換

df_bfi %>%
  select(gender, education) %>% 
  mutate(gender = factor(gender),
         education = factor(education))

## # A tibble: 2,800 x 2
##   gender education
##   <fct>  <fct>    
## 1 1      <NA>     
## 2 2      <NA>     
## 3 2      <NA>     
## # ... with 2,797 more rows
…
3.3.1.1 【効率化】複数の変数に対し一度の指定で実行

変換したい変数が大量にあるときは上記の方法では大変

across()を使うと，指定した変数に対して同じ内容の処理なら 1回 ですむようになる

かつてのmutate_at(), mutate_if()など

df_bfi %>%
  mutate(across(c(gender, education),
                factor)) %>% 
  select(gender, education)   # 結果表示のため冗長だが変わった変数だけselect

## # A tibble: 2,800 x 2
##   gender education
##   <fct>  <fct>    
## 1 1      <NA>     
## 2 2      <NA>     
## 3 2      <NA>     
## # ... with 2,797 more rows

3.4 【効率化】across( )の特徴

変数の指定に1.3で解説したヘルパー関数が使える

df_bfi %>%
  mutate(across(starts_with("n"),
                factor)) %>% 
  select(starts_with("n"))   # 結果表示のため

## # A tibble: 2,800 x 5
##   N1    N2    N3    N4    N5   
##   <fct> <fct> <fct> <fct> <fct>
## 1 3     4     2     2     3    
## 2 3     3     3     5     5    
## 3 4     5     4     2     3    
## # ... with 2,797 more rows

?? で解説した文字も使える

vars <- c("N1", "N2", "N3", "N4", "N5")

df_bfi %>%
  mutate(across(all_of(vars),
                factor)) %>% 
  select(starts_with("n"))   # 結果表示のため

## # A tibble: 2,800 x 5
##   N1    N2    N3    N4    N5   
##   <fct> <fct> <fct> <fct> <fct>
## 1 3     4     2     2     3    
## 2 3     3     3     5     5    
## 3 4     5     4     2     3    
## # ... with 2,797 more rows
…
適用する関数をリストにする（list()に入れる）ことで，変数名を変更して追加できる

list()に入れるときはこれまでと異なる書き方が必要になる

関数名の前に~（チルダ）が必要

list内の関数()内に.（ピリオド）が必要。ここにacross()内に指定した変数が入っていくという意味

df_bfi %>%
  mutate(across(c(gender, education),
                list(f = ~factor(.)))) %>% 
  select(matches("gender|education"))   

## # A tibble: 2,800 x 4
##   gender education gender_f education_f
##    <int>     <int> <fct>    <fct>      
## 1      1        NA 1        <NA>       
## 2      2        NA 2        <NA>       
## 3      2        NA 2        <NA>       
## # ... with 2,797 more rows

因子型に変換した変数の末尾に_fがつく

3.5 合計点の作成

df_bfi_n <- 
  df_bfi %>%
  select(N1:N5) %>%                       
  mutate(neuroticism = N1 + N2 + N3 + N4 + N5)
  
df_bfi_n

## # A tibble: 2,800 x 6
##      N1    N2    N3    N4    N5 neuroticism
##   <int> <int> <int> <int> <int>       <int>
## 1     3     4     2     2     3          14
## 2     3     3     3     5     5          19
## 3     4     5     4     2     3          18
## # ... with 2,797 more rows

3.5.1 足し上げる変数に欠損があるとどうなるか

df_bfi_n %>% 
  filter(is.na(neuroticism))     # neuroticismがNAなケースに限定

## # A tibble: 106 x 6
##      N1    N2    N3    N4    N5 neuroticism
##   <int> <int> <int> <int> <int>       <int>
## 1     4     5     3     2    NA          NA
## 2    NA     2     1     2     2          NA
## 3     1     2     1     2    NA          NA
## # ... with 103 more rows

3.6 連番からIDの作成

dplyr::row_number()で行番号からIDを作成

df_bfi_n %>% 
  mutate(id = row_number())

## # A tibble: 2,800 x 7
##      N1    N2    N3    N4    N5 neuroticism    id
##   <int> <int> <int> <int> <int>       <int> <int>
## 1     3     4     2     2     3          14     1
## 2     3     3     3     5     5          19     2
## 3     4     5     4     2     3          18     3
## # ... with 2,797 more rows

3.6.1 【別解】行の名前を直接変数化

実はmutateを使わなくてもできて，データの最初に持ってこれる便利関数がある

tibble::rowid_to_column()

var =で変数名を指定

df_bfi_n %>% 
  rowid_to_column(var = "id")

## # A tibble: 2,800 x 7
##      id    N1    N2    N3    N4    N5 neuroticism
##   <int> <int> <int> <int> <int> <int>       <int>
## 1     1     3     4     2     2     3          14
## 2     2     3     3     3     5     5          19
## 3     3     4     5     4     2     3          18
## # ... with 2,797 more rows
…
3.7.2 逆転（recode）

dplyr::recode()を使用

入れ替えたい値をold = newで並べていく

この等式の順番が他(mutateなど)と逆になるため，recode()は将来引退する可能性あり

df_bfi %>% 
  mutate(A1_r = recode(A1, `1` = 6L, `2` = 5L, `3` = 4L,      # oldの数値は` `で囲む必要がある
                           `4` = 3L, `5` = 2L, `6` = 1L)) %>% # newの数値にLがつくのは，型を整数のままにするため
  select(A1, A1_r)

## # A tibble: 2,800 x 2
##      A1  A1_r
##   <int> <int>
## 1     2     5
## 2     2     5
## 3     5     2
## # ... with 2,797 more rows

3.7.2.1 変数2つ以上を逆転

A1と同様に同じ形をくり返し変数名だけ変えていけばできるが，コードが長くなりミスも生じやすくなる

df_bfi %>% 
  mutate(A1_r = recode(A1, `1` = 6L, `2` = 5L, `3` = 4L, 
                           `4` = 3L, `5` = 2L, `6` = 1L),
         C4_r = recode(C4, `1` = 6L, `2` = 5L, `3` = 4L, 
                           `4` = 3L, `5` = 2L, `6` = 1L)) %>% 
  select(A1, A1_r, C4, C4_r)

## # A tibble: 2,800 x 4
##      A1  A1_r    C4  C4_r
##   <int> <int> <int> <int>
## 1     2     5     4     3
## 2     2     5     3     4
## 3     5     2     2     5
## # ... with 2,797 more rows

3.7.2.2 【効率化】 変数2つ以上を逆転

3.4.1 で解説したlistに関数を入れる方法

df_bfi %>% 
  mutate(across(c(A1, C4, C5, E1, E2, O2, O5),
                list(r = ~recode(., `1` = 6, `2` = 5, `3` = 4, 
                                 `4` = 3, `5` = 2, `6` = 1)))) %>% 
  select(A1, A1_r, C4,  C4, C5, C5_r, E1, E1_r, E2, E2_r, O2, O2_r, O5, O5_r)

## # A tibble: 2,800 x 13
##      A1  A1_r    C4    C5  C5_r    E1  E1_r    E2  E2_r    O2
##   <int> <dbl> <int> <int> <dbl> <int> <dbl> <int> <dbl> <int>
## 1     2     5     4     4     3     3     4     3     4     6
## 2     2     5     3     4     3     1     6     1     6     2
## 3     5     2     2     5     2     2     5     4     3     2
## # ... with 2,797 more rows, and 3 more variables: O2_r <dbl>,
## #   O5 <int>, O5_r <dbl>
3.7.3 【別解】逆転（公式）

項目を反転する公式が(max + min) - 回答値であることを利用

psych::reverse.code()のhelp参照

min <- 1
max <- 6

df_bfi %>% 
  mutate(A1_r = max + min - A1,
         C4_r = max + min - C4) %>% 
  select(A1, A1_r, C4, C4_r)

## # A tibble: 2,800 x 4
##      A1  A1_r    C4  C4_r
##   <int> <dbl> <int> <dbl>
## 1     2     5     4     3
## 2     2     5     3     4
## 3     5     2     2     5
## # ... with 2,797 more rows

3.7.3.1 【効率化】 変数2つ以上を逆転

~の後に計算式がきても動く

ここでは，max + min - . のピリオド部分にacross内に置かれた変数が入っていく

df_bfi %>% 
  mutate(across(c(A1,C4),
                list(r = ~ max + min - .))) %>% 
  select(A1, A1_r, C4, C4_r)

## # A tibble: 2,800 x 4
##      A1  A1_r    C4  C4_r
##   <int> <dbl> <int> <dbl>
## 1     2     5     4     3
## 2     2     5     3     4
## 3     5     2     2     5
## # ... with 2,797 more rows
…
