1 前提知識 | がんばらないデータ加工
…
palmerpenguinsパッケージのpenguinsデータ（CC0）

最初からtibble形式になっている

データフレーム名を打ち込めばそのまま表示できる

tibble形式でないデータフレームで大きなものに対して実行すると，Consoleの出力がうまって大変になることもある

# パッケージが入ってなければ下記実行
# install.packages("palmerpenguins")

palmerpenguins::penguins

## # A tibble: 344 × 8
##   species island    bill_le…¹ bill_…² flipp…³ body_…⁴ sex    year
##   <fct>   <fct>         <dbl>   <dbl>   <int>   <int> <fct> <int>
## 1 Adelie  Torgersen      39.1    18.7     181    3750 male   2007
## 2 Adelie  Torgersen      39.5    17.4     186    3800 fema…  2007
## 3 Adelie  Torgersen      40.3    18       195    3250 fema…  2007
## # … with 341 more rows, and abbreviated variable names
## #   ¹​bill_length_mm, ²​bill_depth_mm, ³​flipper_length_mm,
## #   ⁴​body_mass_g

tibble形式のデータフレームの出力の見方

出力の最上段にあるA tibble: 344 x 8で，tibble形式のデータフレーム，344行 × 8列という情報が分かる

変数名の下の行にある<fct>, <dbl>, <int>は変数の型を示し，それぞれ因子型，数値型，整数型であることを示している。詳しくは5.3で説明する

より大きいデータフレームで情報が多い場合の出力例を次に示す

palmerpenguins::penguins_raw

## # A tibble: 344 × 17
##   studyName Sample …¹ Species Region Island Stage Indiv…² Clutc…³
##   <chr>         <dbl> <chr>   <chr>  <chr>  <chr> <chr>   <chr>  
## 1 PAL0708           1 Adelie… Anvers Torge… Adul… N1A1    Yes    
## 2 PAL0708           2 Adelie… Anvers Torge… Adul… N1A2    Yes    
## 3 PAL0708           3 Adelie… Anvers Torge… Adul… N2A1    Yes    
## # … with 341 more rows, 9 more variables: `Date Egg` <date>,
## #   `Culmen Length (mm)` <dbl>, `Culmen Depth (mm)` <dbl>,
## #   `Flipper Length (mm)` <dbl>, `Body Mass (g)` <dbl>,
## #   Sex <chr>, `Delta 15 N (o/oo)` <dbl>,
## #   `Delta 13 C (o/oo)` <dbl>, Comments <chr>, and abbreviated
## #   variable names ¹​`Sample Number`, ²​`Individual ID`,
## #   ³​`Clutch Completion`
…
非表示になった変数名は
Date Egg <date>, Culmen Length (mm) <dbl>
のように最下部に表示される

本書では最初の3行の表示のみに絞っているが，出力されるデータフレームの実行結果はデフォルトで10行表示される。任意の行数を表示させたい場合は，print()関数を使う

例：最初の15行のみ表示させる

palmerpenguins::penguins  |>  
  print(n = 15)

## # A tibble: 344 × 8
##    species island    bill_l…¹ bill_…² flipp…³ body_…⁴ sex    year
##    <fct>   <fct>        <dbl>   <dbl>   <int>   <int> <fct> <int>
##  1 Adelie  Torgersen     39.1    18.7     181    3750 male   2007
##  2 Adelie  Torgersen     39.5    17.4     186    3800 fema…  2007
##  3 Adelie  Torgersen     40.3    18       195    3250 fema…  2007
##  4 Adelie  Torgersen     NA      NA        NA      NA <NA>   2007
##  5 Adelie  Torgersen     36.7    19.3     193    3450 fema…  2007
##  6 Adelie  Torgersen     39.3    20.6     190    3650 male   2007
##  7 Adelie  Torgersen     38.9    17.8     181    3625 fema…  2007
##  8 Adelie  Torgersen     39.2    19.6     195    4675 male   2007
##  9 Adelie  Torgersen     34.1    18.1     193    3475 <NA>   2007
## 10 Adelie  Torgersen     42      20.2     190    4250 <NA>   2007
## 11 Adelie  Torgersen     37.8    17.1     186    3300 <NA>   2007
## 12 Adelie  Torgersen     37.8    17.3     180    3700 <NA>   2007
## 13 Adelie  Torgersen     41.1    17.6     182    3200 fema…  2007
## 14 Adelie  Torgersen     38.6    21.2     191    3800 male   2007
## 15 Adelie  Torgersen     34.6    21.1     198    4400 male   2007
## # … with 329 more rows, and abbreviated variable names
## #   ¹​bill_length_mm, ²​bill_depth_mm, ³​flipper_length_mm,
## #   ⁴​body_mass_g
…
