4 csvファイルの読み込みと保存 | excel_r.knit
…
Tools > Global Options > Code > Saving > Default text encoding:

Tools > Project Options > Code Editing > text encoding:

data > csvフォルダ（ここでは>は階層関係を示し、コードではdata/csv/で表現）に入っている「ペンギン（ひどい列名）ver_utf8.csv」を開きます。㊛㊚列のみ、環境依存文字のため、csvにする時点で文字化けています…

4.1.1 UTF-8でエンコードされたcsvファイル

df_csv <- 
 read_csv("data/csv/ペンギン（ひどい列名）ver_utf8.csv")

df_csv

## # A tibble: 344 x 9
##   Sｐｅｃｉｅｓ `種　類` `※島の名前` `①クチバシ　長さ（ｍｍ）`
##   <chr>         <chr>    <chr>                           <dbl>
## 1 Adelie        アデリー Torgersen                        39.1
## 2 Adelie        アデリー Torgersen                        39.5
## 3 Adelie        アデリー Torgersen                        40.3
## # ... with 341 more rows, and 5 more variables:
## #   ②ｸﾁﾊﾞｼ＿大きさ（ｍｍ） <dbl>, 翼：長さ(mm) <dbl>,
## #   ■体重　単位はｇ <dbl>, <U+329B><U+329A> <chr>, ２００７～２００９ <dbl>

4.1.2 【文字化けの例】Shift-JISでエンコードされたcsvファイル

正確にはShift-JISの拡張版であるcp932でエンコードされたファイルです。変数名も文字化けして読みこみ自体できなくなるので、clean_names()で読める形式に変換しています。

日本語の変数名と、2列目の日本語の値が文字化けします。

4.1.3 Shift-JISでエンコードされたcsvファイル

これを読むためには，引数locale = locale(encoding = )でShift-JISのファイルであることを指定する必要があります。

read_csv("data/csv/ペンギン（ひどい列名）ver_cp932.csv"
         , locale = locale(encoding = "cp932"))

## # A tibble: 344 x 9
##   Sｐｅｃｉｅｓ `種　類` `※島の名前` `①クチバシ　長さ（ｍｍ）`
##   <chr>         <chr>    <chr>                           <dbl>
## 1 Adelie        アデリー Torgersen                        39.1
## 2 Adelie        アデリー Torgersen                        39.5
## 3 Adelie        アデリー Torgersen                        40.3
## # ... with 341 more rows, and 5 more variables:
## #   ②ｸﾁﾊﾞｼ＿大きさ（ｍｍ） <dbl>, 翼：長さ(mm) <dbl>,
## #   ■体重　単位はｇ <dbl>, ?? <chr>, ２００７～２００９ <dbl>

4.1.4 read.csv()を使う場合

従来のcsvを読む関数read.csv()を使えば，デフォルトでShift-JISのファイルは読めます。

read.csv("data/csv/ペンギン（ひどい列名）ver_cp932.csv") %>%
    as_tibble()  # データフレームをtibble型にし見やすい出力に

## # A tibble: 344 x 9
##   Sｐｅｃｉｅｓ 種.類    X.島の名前 X.クチバシ.長さ.ｍｍ.
##   <chr>         <chr>    <chr>                      <dbl>
## 1 Adelie        アデリー Torgersen                   39.1
## 2 Adelie        アデリー Torgersen                   39.5
## 3 Adelie        アデリー Torgersen                   40.3
## # ... with 341 more rows, and 5 more variables:
## #   X.ｸﾁﾊﾞｼ.大きさ.ｍｍ. <dbl>, 翼.長さ.mm. <int>,
## #   X.体重.単位はｇ <int>, X.. <chr>, ２００７.２００９ <int>
…
read.csv("data/csv/ペンギン（ひどい列名）ver_utf8.csv", 
         encoding = "UTF-8") %>% 
    as_tibble()

4.1.5 大きいデータならfread()

これまで紹介したcsvファイルを読みこむための関数は、小規模なデータならそんなに時間はかかりませんが、データが数万行×数百列と大きくなってくると、時間がかかるようになります。

そこで大きく時間を短縮できるのが、data.tableパッケージのfread()関数です。実は筆者が一番使ってるのはこの関数です。

data.table::fread("data/csv/ペンギン（ひどい列名）ver_cp932.csv") %>% 
  as_tibble()

## # A tibble: 344 x 9
##   Sｐｅｃｉｅｓ `種　類` `※島の名前` `①クチバシ　長さ（ｍｍ）`
##   <chr>         <chr>    <chr>                           <dbl>
## 1 Adelie        アデリー Torgersen                        39.1
## 2 Adelie        アデリー Torgersen                        39.5
## 3 Adelie        アデリー Torgersen                        40.3
## # ... with 341 more rows, and 5 more variables:
## #   ②ｸﾁﾊﾞｼ＿大きさ（ｍｍ） <dbl>, 翼：長さ(mm) <int>,
## #   ■体重　単位はｇ <int>, ?? <chr>, ２００７～２００９ <int>
…
