2 変数名を変更する | がんばらないデータ加工：Rによる繰り返し作業入門
…
複数の変数名を変更する場合は，rename()の中に,でつなげていく

たくさんある場合に一つ一つ書いていくのは大変

df %>% names()

## [1] "species"           "island"            "bill_length_mm"   
## [4] "bill_depth_mm"     "flipper_length_mm" "body_mass_g"      
## [7] "sex"               "year"

df %>% 
  rename(blmm = bill_length_mm)

## # A tibble: 344 x 8
##   species island  blmm bill_depth_mm flipper_length_~ body_mass_g
##   <fct>   <fct>  <dbl>         <dbl>            <int>       <int>
## 1 Adelie  Torge~  39.1          18.7              181        3750
## 2 Adelie  Torge~  39.5          17.4              186        3800
## 3 Adelie  Torge~  40.3          18                195        3250
## # ... with 341 more rows, and 2 more variables: sex <fct>,
## #   year <int>

# 複数をrenameする場合
df %>% 
  rename(blmm = bill_length_mm,
         bdmm = bill_depth_mm)

## # A tibble: 344 x 8
##   species island    blmm  bdmm flipper_length_~ body_mass_g sex  
##   <fct>   <fct>    <dbl> <dbl>            <int>       <int> <fct>
## 1 Adelie  Torgers~  39.1  18.7              181        3750 male 
## 2 Adelie  Torgers~  39.5  17.4              186        3800 fema~
## 3 Adelie  Torgers~  40.3  18                195        3250 fema~
## # ... with 341 more rows, and 1 more variable: year <int>

複数変数を扱うときはrename_with()が便利。以下はそれを用いた例を示していく

2.2 同じ語を共通の語で置き換える

変数名の”bill”の部分を日本語の”くちばし”に変更していく

まずは基本の知識でできる方法

df %>% 
  rename(くちばし_length_mm = bill_length_mm,
         くちばし_depth_mm = bill_depth_mm)

## # A tibble: 344 x 8
##   species island    くちばし_length_mm くちばし_depth_mm
##   <fct>   <fct>                  <dbl>             <dbl>
## 1 Adelie  Torgersen               39.1              18.7
## 2 Adelie  Torgersen               39.5              17.4
## 3 Adelie  Torgersen               40.3              18  
## # ... with 341 more rows, and 4 more variables:
## #   flipper_length_mm <int>, body_mass_g <int>, sex <fct>,
## #   year <int>

2.2.1 【効率化】str_replace()で一括変換(1)

`rename_with``は，まず適用したい関数を示し，そのあとに該当する変数を選ぶ

適用したい関数の中にある.の部分に，その後選ぶ変数が入っていく

語の置き換えはstringr::str_replace()を使う

df %>% 
  rename_with(~str_replace(., "bill", "くちばし"),
              starts_with("bill"))

## # A tibble: 344 x 8
##   species island    くちばし_length_mm くちばし_depth_mm
##   <fct>   <fct>                  <dbl>             <dbl>
## 1 Adelie  Torgersen               39.1              18.7
## 2 Adelie  Torgersen               39.5              17.4
## 3 Adelie  Torgersen               40.3              18  
## # ... with 341 more rows, and 4 more variables:
## #   flipper_length_mm <int>, body_mass_g <int>, sex <fct>,
## #   year <int>

2.2.1.1 【別解】

selectのように単にc( )の中に変数を指定していくだけでも動く

df %>% 
  rename_with(~str_replace(., "bill", "くちばし"),
              c(bill_length_mm, bill_depth_mm))

## # A tibble: 344 x 8
##   species island    くちばし_length_mm くちばし_depth_mm
##   <fct>   <fct>                  <dbl>             <dbl>
## 1 Adelie  Torgersen               39.1              18.7
## 2 Adelie  Torgersen               39.5              17.4
## 3 Adelie  Torgersen               40.3              18  
## # ... with 341 more rows, and 4 more variables:
## #   flipper_length_mm <int>, body_mass_g <int>, sex <fct>,
## #   year <int>

2.3 同じ語を削除する

“_mm”を取り除きたい場合，それを削除した変数名を指定すればよいが，たくさんあると大変

df %>% 
  rename(bill_length = bill_length_mm,
         bill_depth  = bill_depth_mm,
         flipper_length = flipper_length_mm)

## # A tibble: 344 x 8
##   species island    bill_length bill_depth flipper_length
##   <fct>   <fct>           <dbl>      <dbl>          <int>
## 1 Adelie  Torgersen        39.1       18.7            181
## 2 Adelie  Torgersen        39.5       17.4            186
## 3 Adelie  Torgersen        40.3       18              195
## # ... with 341 more rows, and 3 more variables:
## #   body_mass_g <int>, sex <fct>, year <int>

2.3.1 【効率化】str_replace()で一括変換（2）

str_replace()で変換先に空白""を指定すると削除できる

df %>% 
  rename_with(~str_replace(., "_mm", ""),
              ends_with("mm"))

## # A tibble: 344 x 8
##   species island    bill_length bill_depth flipper_length
##   <fct>   <fct>           <dbl>      <dbl>          <int>
## 1 Adelie  Torgersen        39.1       18.7            181
## 2 Adelie  Torgersen        39.5       17.4            186
## 3 Adelie  Torgersen        40.3       18              195
## # ... with 341 more rows, and 3 more variables:
## #   body_mass_g <int>, sex <fct>, year <int>

2.3.1.1 【別解】

stringr::str_remove()の方が直接的

df %>% 
  rename_with(~str_remove(., "_mm"),
              ends_with("mm"))

## # A tibble: 344 x 8
##   species island    bill_length bill_depth flipper_length
##   <fct>   <fct>           <dbl>      <dbl>          <int>
## 1 Adelie  Torgersen        39.1       18.7            181
## 2 Adelie  Torgersen        39.5       17.4            186
## 3 Adelie  Torgersen        40.3       18              195
## # ... with 341 more rows, and 3 more variables:
## #   body_mass_g <int>, sex <fct>, year <int>

2.4 同じ接尾辞をつける

変数yearで2007年のみのデータに限定し，くちばし（bill）と翼（flipper）の変数名の末に”_2007”をつける

renameの中に全部書いていけばできれば数が多いと大変

df %>% 
  filter(year == 2007) %>% 
  select(bill_length_mm:flipper_length_mm, year) %>% 
  rename(bill_length_mm_2007 = bill_length_mm,
         bill_depth_mm_2007  = bill_depth_mm,
         flipper_length_mm_2007 = flipper_length_mm)

## # A tibble: 110 x 4
##   bill_length_mm_2007 bill_depth_mm_2007 flipper_length_mm~  year
##                 <dbl>              <dbl>              <int> <int>
## 1                39.1               18.7                181  2007
## 2                39.5               17.4                186  2007
## 3                40.3               18                  195  2007
## # ... with 107 more rows
2.4.1 【効率化】str_c()で一括指定

適用したい関数の中にある.の部分に，その後選ぶ変数が入っていく

stringr::str_c()で指定した語をくっつける

ここでは変数year以外なので，!をつけることで変数を指定できる

df %>% 
  filter(year == 2007) %>% 
  select(bill_length_mm:flipper_length_mm, year) %>% 
  rename_with(~str_c(., "_2007"),
               !year)

## # A tibble: 110 x 4
##   bill_length_mm_2007 bill_depth_mm_2007 flipper_length_mm~  year
##                 <dbl>              <dbl>              <int> <int>
## 1                39.1               18.7                181  2007
## 2                39.5               17.4                186  2007
## 3                40.3               18                  195  2007
## # ... with 107 more rows

2.4.1.1 【別解】

df %>% 
filter(year == 2007) %>% 
  rename_with(~str_c(., "_2007"),
               matches("bill|flipper"))

## # A tibble: 110 x 8
##   species island    bill_length_mm_2007 bill_depth_mm_2007
##   <fct>   <fct>                   <dbl>              <dbl>
## 1 Adelie  Torgersen                39.1               18.7
## 2 Adelie  Torgersen                39.5               17.4
## 3 Adelie  Torgersen                40.3               18  
## # ... with 107 more rows, and 4 more variables:
## #   flipper_length_mm_2007 <int>, body_mass_g <int>, sex <fct>,
## #   year <int>

2.5 同

df %>% 
  rename(くちばし_length_mm = bill_length_mm,
         くちばし_depth_mm = bill_depth_mm)

## # A tibble: 344 x 8
##   species island    くちばし_length_mm くちばし_depth_mm
##   <fct>   <fct>                  <dbl>             <dbl>
## 1 Adelie  Torgersen               39.1              18.7
## 2 Adelie  Torgersen               39.5              17.4
## 3 Adelie  Torgersen               40.3              18  
## # ... with 341 more rows, and 4 more variables:
## #   flipper_length_mm <int>, body_mass_g <int>, sex <fct>,
## #   year <int>

2.5.1 【効率化】

df %>% 
  rename_with(~str_replace(., "bill", "くちばし"),
              starts_with("bill"))

## # A tibble: 344 x 8
##   species island    くちばし_length_mm くちばし_depth_mm
##   <fct>   <fct>                  <dbl>             <dbl>
## 1 Adelie  Torgersen               39.1              18.7
## 2 Adelie  Torgersen               39.5              17.4
## 3 Adelie  Torgersen               40.3              18  
## # ... with 341 more rows, and 4 more variables:
## #   flipper_length_mm <int>, body_mass_g <int>, sex <fct>,
## #   year <int>
