2 変数（列）を選ぶ：select( ) | がんばらないデータ加工：Rによる繰り返し作業入門（前編）
…
2.1 データ読み込み

データの指定を簡単にするために，penguinsデータをdfと読み込む

library(tidyverse)

# 繝代ャ繧ｱ繝ｼ繧ｸ縺悟<85>･縺｣縺ｦ縺ｪ縺代ｌ縺ｰ荳玖ｨ伜ｮ溯｡<8c>NA# install.packages("palmerpenguins")

df <- 
  palmerpenguins::penguins
  
df # 繝<87>繝ｼ繧ｿ縺ｮ陦ｨ遉ｺ NA

## # A tibble: 344 x 8
##   species island    bill_length_mm bill_depth_mm flipper_length_~
##   <fct>   <fct>              <dbl>         <dbl>            <int>
## 1 Adelie  Torgersen           39.1          18.7              181
## 2 Adelie  Torgersen           39.5          17.4              186
## 3 Adelie  Torgersen           40.3          18                195
## # ... with 341 more rows, and 3 more variables:
## #   body_mass_g <int>, sex <fct>, year <int>

読み込みの様々な方法については拙書『Rで読むExcelファイル』参照

2.2 基本

select( )の中に関心のある変数名を,をつけて並べる

変数は1つからOK

df %>% 
  select(bill_length_mm, bill_depth_mm)

## # A tibble: 344 x 2
##   bill_length_mm bill_depth_mm
##            <dbl>         <dbl>
## 1           39.1          18.7
## 2           39.5          17.4
## 3           40.3          18  
## # ... with 341 more rows

新しいデータフレームを作りたい場合は<-を使って新しいオブジェクトに格納する

df2 <- 
  df %>% select(bill_length_mm)

df2

## # A tibble: 344 x 1
##   bill_length_mm
##            <dbl>
## 1           39.1
## 2           39.5
## 3           40.3
## # ... with 341 more rows

2.2.1 範囲指定

関心ある変数が指定された範囲に含まれていれば:でつなげて取得できる

変数の連番をまとめて指定する時などに便利（例 変数1:変数100）

df %>% 
  select(bill_length_mm:flipper_length_mm)

## # A tibble: 344 x 3
##   bill_length_mm bill_depth_mm flipper_length_mm
##            <dbl>         <dbl>             <int>
## 1           39.1          18.7               181
## 2           39.5          17.4               186
## 3           40.3          18                 195
## # ... with 341 more rows

範囲に加えて追加の変数を追加できる

飛び飛びの変数群を選びたいときに有用

df %>% 
  select(bill_length_mm:flipper_length_mm, sex)

## # A tibble: 344 x 4
##   bill_length_mm bill_depth_mm flipper_length_mm sex   
##            <dbl>         <dbl>             <int> <fct> 
## 1           39.1          18.7               181 male  
## 2           39.5          17.4               186 female
## 3           40.3          18                 195 female
## # ... with 341 more rows

2.2.2 中身が文字でも動く

変数名が" "で囲われていると，Rでは文字(character)だと認識される

df %>% 
  select("bill_length_mm", "bill_depth_mm")

## # A tibble: 344 x 2
##   bill_length_mm bill_depth_mm
##            <dbl>         <dbl>
## 1           39.1          18.7
## 2           39.5          17.4
## 3           40.3          18  
## # ... with 341 more rows

これは効率化を図りたいときに重要な特徴

select( )の中にたくさんの変数名を並べるより，事前に指定しておき代入した方が読みやすい

様々なコード例でこの事前指定が多用されるので慣れるとよい

# 縺ゅｉ縺九§繧√が繝悶ず繧ｧ繧ｯ繝茨ｼ医％縺薙〒縺ｯvarsｼ峨↓蠑墓焚繧呈ｼ邏阪＠縺ｦ蠕後〒菴ｿ縺医ｋNAvars <- c("bill_length_mm", "bill_depth_mm")

df %>% 
  select(all_of(vars))

## # A tibble: 344 x 2
##   bill_length_mm bill_depth_mm
##            <dbl>         <dbl>
## 1           39.1          18.7
## 2           39.5          17.4
## 3           40.3          18  
## # ... with 341 more rows
…
2.3 変数の指定に便利なヘルパー関数

selection helperと呼ばれるtidyselectパッケージの関数群

selectの所で解説されることが多いが，後から出てくるacross()と併せた活用場面が多いため，なじんでおくと後から楽になる

2.3.1 変数名の最初の文字列

billから始まる変数を選ぶ

df %>%
  select(starts_with("bill"))

## # A tibble: 344 x 2
##   bill_length_mm bill_depth_mm
##            <dbl>         <dbl>
## 1           39.1          18.7
## 2           39.5          17.4
## 3           40.3          18  
## # ... with 341 more rows

2.3.2 変数名の最後の文字列

_mmで終わる変数を選ぶ

mmだけだと他にも含まれる場合が出てくるので，_も含めた方が安全

df %>%
  select(ends_with("_mm"))

## # A tibble: 344 x 3
##   bill_length_mm bill_depth_mm flipper_length_mm
##            <dbl>         <dbl>             <int>
## 1           39.1          18.7               181
## 2           39.5          17.4               186
## 3           40.3          18                 195
## # ... with 341 more rows

2.3.3 変数名のどこかに含まれる文字列

指定した文字列を含んだ変数名を対象とする

df %>%
  select(contains("length"))

## # A tibble: 344 x 2
##   bill_length_mm flipper_length_mm
##            <dbl>             <int>
## 1           39.1               181
## 2           39.5               186
## 3           40.3               195
## # ... with 341 more rows

2.3.3.1 変数名のどこかに含まれる文字列：その2

文字列で 正規表現 が使えるため柔軟な指定が可能

ここでは，“length”または”depth”を含む変数名を対象

|が「または」を意味する

df %>%
  select(matches("length|depth"))

## # A tibble: 344 x 3
##   bill_length_mm bill_depth_mm flipper_length_mm
##            <dbl>         <dbl>             <int>
## 1           39.1          18.7               181
## 2           39.5          17.4               186
## 3           40.3          18                 195
## # ... with 341 more rows

2.3.4 上記の組み合わせ

2.3.4.1 かつ

それぞれの条件を両方満たす

df %>%
  select(starts_with("bill") & contains("length"))

## # A tibble: 344 x 1
##   bill_length_mm
##            <dbl>
## 1           39.1
## 2           39.5
## 3           40.3
## # ... with 341 more rows

2.3.4.2 または

それぞれの条件をいずれか満たす

df %>%
  select(starts_with("bill") | contains("length"))

## # A tibble: 344 x 3
##   bill_length_mm bill_depth_mm flipper_length_mm
##            <dbl>         <dbl>             <int>
## 1           39.1          18.7               181
## 2           39.5          17.4               186
## 3           40.3          18                 195
## # ... with 341 more rows
…
2.4 特定の変数を選ばない（落とす）

変数名の前に!をつける

df %>% 
  select(!species)

## # A tibble: 344 x 7
##   island    bill_length_mm bill_depth_mm flipper_length_mm
##   <fct>              <dbl>         <dbl>             <int>
## 1 Torgersen           39.1          18.7               181
## 2 Torgersen           39.5          17.4               186
## 3 Torgersen           40.3          18                 195
## # ... with 341 more rows, and 3 more variables:
## #   body_mass_g <int>, sex <fct>, year <int>

複数列を落としたい場合は，!c( )の中に対象の列名を含める

df %>% 
  select(!c(bill_length_mm:flipper_length_mm, sex))

## # A tibble: 344 x 4
##   species island    body_mass_g  year
##   <fct>   <fct>           <int> <int>
## 1 Adelie  Torgersen        3750  2007
## 2 Adelie  Torgersen        3800  2007
## 3 Adelie  Torgersen        3250  2007
## # ... with 341 more rows
…
