4 要約値を作る | がんばらないデータ加工：Rによる繰り返し作業入門
…
( )の中に関心のある変数名を,をつけて並べる

変数は1つからOK

4.1.1 範囲指定

関心ある変数が指定された範囲に含まれていれば:でつなげて取得できる

変数の連番をまとめて指定する時などに便利（例 変数1:変数100）

df %>% 
  select(bill_length_mm:flipper_length_mm)

## # A tibble: 344 x 3
##   bill_length_mm bill_depth_mm flipper_length_mm
##            <dbl>         <dbl>             <int>
## 1           39.1          18.7               181
## 2           39.5          17.4               186
## 3           40.3          18                 195
## # ... with 341 more rows

範囲に加えて追加の変数を追加できる

飛び飛びの変数群を選びたいときに有用

df %>% 
  select(bill_length_mm:flipper_length_mm, sex)

## # A tibble: 344 x 4
##   bill_length_mm bill_depth_mm flipper_length_mm sex   
##            <dbl>         <dbl>             <int> <fct> 
## 1           39.1          18.7               181 male  
## 2           39.5          17.4               186 female
## 3           40.3          18                 195 female
## # ... with 341 more rows
